{
	{
        "artists": {
          "href": "https://api.spotify.com/v1/search?query=radiohead&type=artist&locale=ja%2Cen-US%3Bq%3D0.9%2Cen%3Bq%3D0.8%2Ces%3Bq%3D0.7&offset=0&limit=20",
          "limit": 20,
          "next": "https://api.spotify.com/v1/search?query=radiohead&type=artist&locale=ja%2Cen-US%3Bq%3D0.9%2Cen%3Bq%3D0.8%2Ces%3Bq%3D0.7&offset=20&limit=20",
          "offset": 0,
          "previous": null,
          "total": 21,
          "items": [
            {
              "external_urls": {
                "spotify": "https://open.spotify.com/artist/4Z8W4fKeB5YxbusRsdQVPb"
              },
              "followers": {
                "href": null,
                "total": 9092934
              },
              "genres": ["alternative rock", "art rock", "melancholia", "oxford indie", "permanent wave", "rock"],
              "href": "https://api.spotify.com/v1/artists/4Z8W4fKeB5YxbusRsdQVPb",
              "id": "4Z8W4fKeB5YxbusRsdQVPb",
              "images": [
                {
                  "url": "https://i.scdn.co/image/ab6761610000e5eba03696716c9ee605006047fd",
                  "height": 640,
                  "width": 640
                },
                {
                  "url": "https://i.scdn.co/image/ab67616100005174a03696716c9ee605006047fd",
                  "height": 320,
                  "width": 320
                },
                {
                  "url": "https://i.scdn.co/image/ab6761610000f178a03696716c9ee605006047fd",
                  "height": 160,
                  "width": 160
                }
              ],
              "name": "レディオヘッド",
              "popularity": 79,
              "type": "artist",
              "uri": "spotify:artist:4Z8W4fKeB5YxbusRsdQVPb"
            },
            {
              "external_urls": {
                "spotify": "https://open.spotify.com/artist/4CvTDPKA6W06DRfBnZKrau"
              },
              "followers": {
                "href": null,
                "total": 1000923
              },
              "genres": ["alternative rock", "art pop", "art rock", "electronica", "glitch pop", "indie rock", "oxford indie"],
              "href": "https://api.spotify.com/v1/artists/4CvTDPKA6W06DRfBnZKrau",
              "id": "4CvTDPKA6W06DRfBnZKrau",
              "images": [
                {
                  "url": "https://i.scdn.co/image/ab6761610000e5eb3153f6fe26063cfcbfc57677",
                  "height": 640,
                  "width": 640
                },
                {
                  "url": "https://i.scdn.co/image/ab676161000051743153f6fe26063cfcbfc57677",
                  "height": 320,
                  "width": 320
                },
                {
                  "url": "https://i.scdn.co/image/ab6761610000f1783153f6fe26063cfcbfc57677",
                  "height": 160,
                  "width": 160
                }
              ],
              "name": "トム・ヨーク",
              "popularity": 55,
              "type": "artist",
              "uri": "spotify:artist:4CvTDPKA6W06DRfBnZKrau"
            },
            {
              "external_urls": {
                "spotify": "https://open.spotify.com/artist/7MhMgCo0Bl0Kukl93PZbYS"
              },
              "followers": {
                "href": null,
                "total": 3145943
              },
              "genres": ["alternative rock", "britpop", "madchester", "permanent wave", "rock"],
              "href": "https://api.spotify.com/v1/artists/7MhMgCo0Bl0Kukl93PZbYS",
              "id": "7MhMgCo0Bl0Kukl93PZbYS",
              "images": [
                {
                  "url": "https://i.scdn.co/image/ab6761610000e5eb00620d736644d2359ce99430",
                  "height": 640,
                  "width": 640
                },
                {
                  "url": "https://i.scdn.co/image/ab6761610000517400620d736644d2359ce99430",
                  "height": 320,
                  "width": 320
                },
                {
                  "url": "https://i.scdn.co/image/ab6761610000f17800620d736644d2359ce99430",
                  "height": 160,
                  "width": 160
                }
              ],
              "name": "ブラー",
              "popularity": 67,
              "type": "artist",
              "uri": "spotify:artist:7MhMgCo0Bl0Kukl93PZbYS"
            },
            {
              "external_urls": {
                "spotify": "https://open.spotify.com/artist/2DaxqgrOhkeH0fpeiQq2f4"
              },
              "followers": {
                "href": null,
                "total": 9459134
              },
              "genres": ["beatlesque", "britpop", "madchester", "permanent wave", "rock"],
              "href": "https://api.spotify.com/v1/artists/2DaxqgrOhkeH0fpeiQq2f4",
              "id": "2DaxqgrOhkeH0fpeiQq2f4",
              "images": [
                {
                  "url": "https://i.scdn.co/image/ab6761610000e5eba572b3112ccbf374488fed58",
                  "height": 640,
                  "width": 640
                },
                {
                  "url": "https://i.scdn.co/image/ab67616100005174a572b3112ccbf374488fed58",
                  "height": 320,
                  "width": 320
                },
                {
                  "url": "https://i.scdn.co/image/ab6761610000f178a572b3112ccbf374488fed58",
                  "height": 160,
                  "width": 160
                }
              ],
              "name": "オアシス",
              "popularity": 74,
              "type": "artist",
              "uri": "spotify:artist:2DaxqgrOhkeH0fpeiQq2f4"
            },
            {
              "external_urls": {
                "spotify": "https://open.spotify.com/artist/6styCzc1Ej4NxISL0LiigM"
              },
              "followers": {
                "href": null,
                "total": 327933
              },
              "genres": ["uk post-punk revival"],
              "href": "https://api.spotify.com/v1/artists/6styCzc1Ej4NxISL0LiigM",
              "id": "6styCzc1Ej4NxISL0LiigM",
              "images": [
                {
                  "url": "https://i.scdn.co/image/ab6761610000e5eb5843196429108a4112f73c10",
                  "height": 640,
                  "width": 640
                },
                {
                  "url": "https://i.scdn.co/image/ab676161000051745843196429108a4112f73c10",
                  "height": 320,
                  "width": 320
                },
                {
                  "url": "https://i.scdn.co/image/ab6761610000f1785843196429108a4112f73c10",
                  "height": 160,
                  "width": 160
                }
              ],
              "name": "The Smile",
              "popularity": 51,
              "type": "artist",
              "uri": "spotify:artist:6styCzc1Ej4NxISL0LiigM"
            },
            {
              "external_urls": {
                "spotify": "https://open.spotify.com/artist/40Yq4vzPs9VNUrIBG5Jr2i"
              },
              "followers": {
                "href": null,
                "total": 4830142
              },
              "genres": ["alternative metal", "alternative rock", "grunge", "permanent wave", "rock", "spacegrunge"],
              "href": "https://api.spotify.com/v1/artists/40Yq4vzPs9VNUrIBG5Jr2i",
              "id": "40Yq4vzPs9VNUrIBG5Jr2i",
              "images": [
                {
                  "url": "https://i.scdn.co/image/ab6761610000e5ebbd85f631779e65b01349d747",
                  "height": 640,
                  "width": 640
                },
                {
                  "url": "https://i.scdn.co/image/ab67616100005174bd85f631779e65b01349d747",
                  "height": 320,
                  "width": 320
                },
                {
                  "url": "https://i.scdn.co/image/ab6761610000f178bd85f631779e65b01349d747",
                  "height": 160,
                  "width": 160
                }
              ],
              "name": "スマッシング・パンプキンズ",
              "popularity": 70,
              "type": "artist",
              "uri": "spotify:artist:40Yq4vzPs9VNUrIBG5Jr2i"
            },
            {
              "external_urls": {
                "spotify": "https://open.spotify.com/artist/6olE6TJLqED3rqDCT0FyPh"
              },
              "followers": {
                "href": null,
                "total": 18653523
              },
              "genres": ["grunge", "permanent wave", "rock"],
              "href": "https://api.spotify.com/v1/artists/6olE6TJLqED3rqDCT0FyPh",
              "id": "6olE6TJLqED3rqDCT0FyPh",
              "images": [
                {
                  "url": "https://i.scdn.co/image/84282c28d851a700132356381fcfbadc67ff498b",
                  "height": 1057,
                  "width": 1000
                },
                {
                  "url": "https://i.scdn.co/image/a4e10b79a642e9891383448cbf37d7266a6883d6",
                  "height": 677,
                  "width": 640
                },
                {
                  "url": "https://i.scdn.co/image/42ae0f180f16e2f21c1f2212717fc436f5b95451",
                  "height": 211,
                  "width": 200
                },
                {
                  "url": "https://i.scdn.co/image/e797ad36d56c3fc8fa06c6fe91263a15bf8391b8",
                  "height": 68,
                  "width": 64
                }
              ],
              "name": "ニルヴァーナ",
              "popularity": 79,
              "type": "artist",
              "uri": "spotify:artist:6olE6TJLqED3rqDCT0FyPh"
            },
            {
              "external_urls": {
                "spotify": "https://open.spotify.com/artist/3yY2gUcIsjMr8hjo51PoJ8"
              },
              "followers": {
                "href": null,
                "total": 4836301
              },
              "genres": ["madchester", "new wave", "permanent wave", "rock", "uk post-punk"],
              "href": "https://api.spotify.com/v1/artists/3yY2gUcIsjMr8hjo51PoJ8",
              "id": "3yY2gUcIsjMr8hjo51PoJ8",
              "images": [
                {
                  "url": "https://i.scdn.co/image/481b980af463122013e4578c08fb8c5cbfaed1e9",
                  "height": 1516,
                  "width": 1000
                },
                {
                  "url": "https://i.scdn.co/image/4bf08a9e6eea088b20d4092d1322bbd3f39ff9af",
                  "height": 970,
                  "width": 640
                },
                {
                  "url": "https://i.scdn.co/image/bd4c7f5ff2c5c4385604e60c71eac1dd498ddbd9",
                  "height": 303,
                  "width": 200
                },
                {
                  "url": "https://i.scdn.co/image/d3a2542f2811b5b01ee3483ec7c193f72a882ea1",
                  "height": 97,
                  "width": 64
                }
              ],
              "name": "ザ・スミス",
              "popularity": 76,
              "type": "artist",
              "uri": "spotify:artist:3yY2gUcIsjMr8hjo51PoJ8"
            },
            {
              "external_urls": {
                "spotify": "https://open.spotify.com/artist/3G3Gdm0ZRAOxLrbyjfhii5"
              },
              "followers": {
                "href": null,
                "total": 833950
              },
              "genres": ["alternative rock", "dream pop", "noise pop", "shoegaze"],
              "href": "https://api.spotify.com/v1/artists/3G3Gdm0ZRAOxLrbyjfhii5",
              "id": "3G3Gdm0ZRAOxLrbyjfhii5",
              "images": [
                {
                  "url": "https://i.scdn.co/image/ab6761610000e5eb21c79e4e6e1af6af9b94d3a0",
                  "height": 640,
                  "width": 640
                },
                {
                  "url": "https://i.scdn.co/image/ab6761610000517421c79e4e6e1af6af9b94d3a0",
                  "height": 320,
                  "width": 320
                },
                {
                  "url": "https://i.scdn.co/image/ab6761610000f17821c79e4e6e1af6af9b94d3a0",
                  "height": 160,
                  "width": 160
                }
              ],
              "name": "マイ・ブラッディ・ヴァレンタイン",
              "popularity": 55,
              "type": "artist",
              "uri": "spotify:artist:3G3Gdm0ZRAOxLrbyjfhii5"
            },
            {
              "external_urls": {
                "spotify": "https://open.spotify.com/artist/7w29UYBi0qsHi5RTcv3lmA"
              },
              "followers": {
                "href": null,
                "total": 1961001
              },
              "genres": ["art pop", "electronica", "experimental pop", "experimental vocal", "icelandic experimental", "icelandic pop", "icelandic singer-songwriter", "metropopolis", "permanent wave", "trip hop"],
              "href": "https://api.spotify.com/v1/artists/7w29UYBi0qsHi5RTcv3lmA",
              "id": "7w29UYBi0qsHi5RTcv3lmA",
              "images": [
                {
                  "url": "https://i.scdn.co/image/ab6761610000e5ebaeb5c04fdd8ec6273850d207",
                  "height": 640,
                  "width": 640
                },
                {
                  "url": "https://i.scdn.co/image/ab67616100005174aeb5c04fdd8ec6273850d207",
                  "height": 320,
                  "width": 320
                },
                {
                  "url": "https://i.scdn.co/image/ab6761610000f178aeb5c04fdd8ec6273850d207",
                  "height": 160,
                  "width": 160
                }
              ],
              "name": "ビョーク",
              "popularity": 63,
              "type": "artist",
              "uri": "spotify:artist:7w29UYBi0qsHi5RTcv3lmA"
            },
            {
              "external_urls": {
                "spotify": "https://open.spotify.com/artist/7Ln80lUS6He07XvHI8qqHH"
              },
              "followers": {
                "href": null,
                "total": 22699716
              },
              "genres": ["garage rock", "modern rock", "permanent wave", "rock", "sheffield indie"],
              "href": "https://api.spotify.com/v1/artists/7Ln80lUS6He07XvHI8qqHH",
              "id": "7Ln80lUS6He07XvHI8qqHH",
              "images": [
                {
                  "url": "https://i.scdn.co/image/ab6761610000e5eb7da39dea0a72f581535fb11f",
                  "height": 640,
                  "width": 640
                },
                {
                  "url": "https://i.scdn.co/image/ab676161000051747da39dea0a72f581535fb11f",
                  "height": 320,
                  "width": 320
                },
                {
                  "url": "https://i.scdn.co/image/ab6761610000f1787da39dea0a72f581535fb11f",
                  "height": 160,
                  "width": 160
                }
              ],
              "name": "アークティック・モンキーズ",
              "popularity": 84,
              "type": "artist",
              "uri": "spotify:artist:7Ln80lUS6He07XvHI8qqHH"
            },
            {
              "external_urls": {
                "spotify": "https://open.spotify.com/artist/0ADkBHZhR2cVfANgK5gHQO"
              },
              "followers": {
                "href": null,
                "total": 515
              },
              "genres": [],
              "href": "https://api.spotify.com/v1/artists/0ADkBHZhR2cVfANgK5gHQO",
              "id": "0ADkBHZhR2cVfANgK5gHQO",
              "images": [
                {
                  "url": "https://i.scdn.co/image/ab67616d0000b273c8e9b66dea4469de0820ca38",
                  "height": 640,
                  "width": 640
                },
                {
                  "url": "https://i.scdn.co/image/ab67616d00001e02c8e9b66dea4469de0820ca38",
                  "height": 300,
                  "width": 300
                },
                {
                  "url": "https://i.scdn.co/image/ab67616d00004851c8e9b66dea4469de0820ca38",
                  "height": 64,
                  "width": 64
                }
              ],
              "name": "Radiohead Tribute Band",
              "popularity": 3,
              "type": "artist",
              "uri": "spotify:artist:0ADkBHZhR2cVfANgK5gHQO"
            },
            {
              "external_urls": {
                "spotify": "https://open.spotify.com/artist/17mBFWKyCyp506a3n6XUWA"
              },
              "followers": {
                "href": null,
                "total": 4
              },
              "genres": [],
              "href": "https://api.spotify.com/v1/artists/17mBFWKyCyp506a3n6XUWA",
              "id": "17mBFWKyCyp506a3n6XUWA",
              "images": [],
              "name": "DJ Radiohead",
              "popularity": 0,
              "type": "artist",
              "uri": "spotify:artist:17mBFWKyCyp506a3n6XUWA"
            },
            {
              "external_urls": {
                "spotify": "https://open.spotify.com/artist/5gfqeKQikBQqSZcOwSTE5w"
              },
              "followers": {
                "href": null,
                "total": 49
              },
              "genres": [],
              "href": "https://api.spotify.com/v1/artists/5gfqeKQikBQqSZcOwSTE5w",
              "id": "5gfqeKQikBQqSZcOwSTE5w",
              "images": [
                {
                  "url": "https://i.scdn.co/image/ab6761610000e5eb0f5915b50722d28235f6c974",
                  "height": 640,
                  "width": 640
                },
                {
                  "url": "https://i.scdn.co/image/ab676161000051740f5915b50722d28235f6c974",
                  "height": 320,
                  "width": 320
                },
                {
                  "url": "https://i.scdn.co/image/ab6761610000f1780f5915b50722d28235f6c974",
                  "height": 160,
                  "width": 160
                }
              ],
              "name": "DJ Radiohead",
              "popularity": 0,
              "type": "artist",
              "uri": "spotify:artist:5gfqeKQikBQqSZcOwSTE5w"
            },
            {
              "external_urls": {
                "spotify": "https://open.spotify.com/artist/5iAtlg9oHVwVFCJZh25ugZ"
              },
              "followers": {
                "href": null,
                "total": 14
              },
              "genres": [],
              "href": "https://api.spotify.com/v1/artists/5iAtlg9oHVwVFCJZh25ugZ",
              "id": "5iAtlg9oHVwVFCJZh25ugZ",
              "images": [],
              "name": "DJ RadioHead",
              "popularity": 0,
              "type": "artist",
              "uri": "spotify:artist:5iAtlg9oHVwVFCJZh25ugZ"
            },
            {
              "external_urls": {
                "spotify": "https://open.spotify.com/artist/54FnvKUQFU2KpNJlZi25G0"
              },
              "followers": {
                "href": null,
                "total": 8
              },
              "genres": [],
              "href": "https://api.spotify.com/v1/artists/54FnvKUQFU2KpNJlZi25G0",
              "id": "54FnvKUQFU2KpNJlZi25G0",
              "images": [],
              "name": "Dj Radiohead",
              "popularity": 0,
              "type": "artist",
              "uri": "spotify:artist:54FnvKUQFU2KpNJlZi25G0"
            },
            {
              "external_urls": {
                "spotify": "https://open.spotify.com/artist/3PqpaOi0ShxqLHX0y38KKH"
              },
              "followers": {
                "href": null,
                "total": 19
              },
              "genres": [],
              "href": "https://api.spotify.com/v1/artists/3PqpaOi0ShxqLHX0y38KKH",
              "id": "3PqpaOi0ShxqLHX0y38KKH",
              "images": [],
              "name": "DJ RadioHead",
              "popularity": 0,
              "type": "artist",
              "uri": "spotify:artist:3PqpaOi0ShxqLHX0y38KKH"
            },
            {
              "external_urls": {
                "spotify": "https://open.spotify.com/artist/1FpHL6FHhOoHIKbwSlzAlQ"
              },
              "followers": {
                "href": null,
                "total": 0
              },
              "genres": [],
              "href": "https://api.spotify.com/v1/artists/1FpHL6FHhOoHIKbwSlzAlQ",
              "id": "1FpHL6FHhOoHIKbwSlzAlQ",
              "images": [],
              "name": "DJ Radiohead",
              "popularity": 0,
              "type": "artist",
              "uri": "spotify:artist:1FpHL6FHhOoHIKbwSlzAlQ"
            },
            {
              "external_urls": {
                "spotify": "https://open.spotify.com/artist/3fYO0rcTXXlIrXUwNmbslE"
              },
              "followers": {
                "href": null,
                "total": 168
              },
              "genres": [],
              "href": "https://api.spotify.com/v1/artists/3fYO0rcTXXlIrXUwNmbslE",
              "id": "3fYO0rcTXXlIrXUwNmbslE",
              "images": [
                {
                  "url": "https://i.scdn.co/image/ab6761610000e5eb373857358c84c8b66aa6c992",
                  "height": 640,
                  "width": 640
                },
                {
                  "url": "https://i.scdn.co/image/ab67616100005174373857358c84c8b66aa6c992",
                  "height": 320,
                  "width": 320
                },
                {
                  "url": "https://i.scdn.co/image/ab6761610000f178373857358c84c8b66aa6c992",
                  "height": 160,
                  "width": 160
                }
              ],
              "name": "RADIOHOP",
              "popularity": 6,
              "type": "artist",
              "uri": "spotify:artist:3fYO0rcTXXlIrXUwNmbslE"
            },
            {
              "external_urls": {
                "spotify": "https://open.spotify.com/artist/4RdxEzzuSD9k9SShzdwyen"
              },
              "followers": {
                "href": null,
                "total": 477
              },
              "genres": ["indie catracho"],
              "href": "https://api.spotify.com/v1/artists/4RdxEzzuSD9k9SShzdwyen",
              "id": "4RdxEzzuSD9k9SShzdwyen",
              "images": [
                {
                  "url": "https://i.scdn.co/image/ab6761610000e5ebca203c33319a6c5e1495dcaf",
                  "height": 640,
                  "width": 640
                },
                {
                  "url": "https://i.scdn.co/image/ab67616100005174ca203c33319a6c5e1495dcaf",
                  "height": 320,
                  "width": 320
                },
                {
                  "url": "https://i.scdn.co/image/ab6761610000f178ca203c33319a6c5e1495dcaf",
                  "height": 160,
                  "width": 160
                }
              ],
              "name": "Radiophobic",
              "popularity": 4,
              "type": "artist",
              "uri": "spotify:artist:4RdxEzzuSD9k9SShzdwyen"
            }
          ]
        }
      }